{
  "results": [
    {
      "id": 1,
      "name": "Idea Page 1 Item 1",
      "description": "First item on page 1",
      "location_status": "visible"
    },
    {
      "id": 2,
      "name": "Idea Page 1 Item 2",
      "description": "Second item on page 1",
      "location_status": "visible"
    }
  ],
  "paging": {
    "page": 1,
    "page_size": 2,
    "total": 5,
    "next": "https://app.productplan.com/api/v2/discovery/ideas?page=2&page_size=2"
  }
}
